null,4813721
"pinas",243601
"jacht",181676
"jacht or pinas",null
"fluit",590531
"galjoot",2972
"fregat",38729
"galjoot? bootje?",null
"fluit? jacht?",11278
"pinas? jacht?",43329
"jacht? pinas?",7819
"fluit? galjoot?",300
"galjoot? fluit?",313
"hoeker",49363
"hoeker? bootje?",630
"galjoot? hoeker?",80
"pinas? fluit?",9448
"bootje? fluit?",100
"jachtje",1782
"hoeker? jacht?",250
"fluit? kat?",5296
"kat? fluit?",240
"bootje",360
"galjoot? pinas?",260
"kat",1792
"fluit? hekboot?",12116
"hoeker? jachtje?",60
"fluit? hoeker?",330
"fluitje",90
"buffs",null
"loodsboot",null
"galjoot? loodsboot?",140
"fluit?",297
"fregat? jacht?",1140
"jacht? fregat?",1810
"hekboot? fluit?",1236
"pinas?",1553
"hekboot",4032
"gajoot",130
"hekboot fluit",618
"brigantijn",160
"logger",null
"pink",12382
"fregar",508
"hooker",648
"paketboot",6528
"brik",180
"hneker",780
"pinas/fluit",524
"hoeker/bootje",90
"jacht?",380
"fregat?",210
"fregat/jacht",210
