{
  "dimensions": [
    {
      "column": {
        "columnId": "master",
        "subColumnType": 0
      }
    }
  ],
  "filters": {
    "type": "and",
    "items": [
      {
        "columns": [
          {
            "columnId": "master",
            "subColumnType": 0
          }
        ],
        "filterBy": {
          "type": 30,
          "range": {
            "pattern": "Alex",
            "caseSensitive": true
          },
          "exclude": false
        }
      }
    ]
  }
}