{
  "dimensions": [
    {
      "column": {
        "columnId": "boatname",
        "subColumnType": 0
      },
      "orderBy": {
        "type": "value",
        "order": "descending",
        "value": {
          "aggregationType": "fst",
          "column": {
            "columnId": "arrival_date",
            "subColumnType": 0
          }
        }
      }
    }
  ]
}