1629,468.095
1630,430.201
1631,501.235
1632,428.924
1633,507.743
1634,436.065
1635,473.51
1636,503.697
1637,429.258
1638,495.375
1639,471.125
1640,526.428
1641,591.717
1642,677.592
1643,641.704
1644,684.467
1645,695.807
1646,652.375
1647,741.294
1648,700.884
1649,803.508
1650,756.813
1651,843.983
1652,734.61
1653,736.483
1654,666.818
1655,685.571
1656,746.681
1657,742.318
1658,764.93
1659,764.788
1660,688.854
1661,733.35
1662,616.981
1663,693.315
1664,536.354
1665,613.971
1666,581.05
1667,560.086
1668,631.717
1669,601.356
1670,643.042
1671,638.998
1672,618.795
1673,643.834
1674,643.941
1675,675.029
1676,723.005
1677,739.373
1678,768.977
1679,789.442
1680,763.402
1681,780.735
1682,746.8
1683,683.512
1684,746.811
1685,639.346
1686,701.364
1687,674.544
1688,711.732
1689,675.137
1690,742.192
1691,644.624
1692,678.812
1693,677.059
1694,641.937
1695,690.452
1696,660.025
1697,652.058
1698,667.209
1699,658.641
1700,691.744
