{
  "pivots": [
    {
      "id": "207799e0-c276-11ea-88ea-e33c0f588dba",
      "values": [
        {
          "aggregationType": "cnt",
          "column": {
            "columnId": "number",
            "subColumnType": 0
          }
        }
      ],
      "dimensions": [
        {
          "column": {
            "columnId": "arrival_date",
            "subColumnType": 2
          },
          "orderBy": {
            "type": "auto",
            "order": "ascending"
          }
        },
        {
          "column": {
            "columnId": "type_of_boat",
            "subColumnType": 0
          }
        }
      ],
      "filters": {
        "type": "and",
        "items": [
          {
            "columns": [
              {
                "columnId": "type_of_boat",
                "subColumnType": 0
              }
            ],
            "filterBy": {
              "type": 31,
              "range": {
                "pattern": "?",
                "caseSensitive": false
              },
              "exclude": false
            }
          },
          {
            "columns": [
              {
                "columnId": "arrival_date",
                "subColumnType": 2
              },
              {
                "columnId": "type_of_boat",
                "subColumnType": 0
              }
            ],
            "filterBy": {
              "type": 10,
              "range": {
                "items": [
                  {
                    "value": 3,
                    "children": [
                      {
                        "value": "fluit? jacht?"
                      },
                      {
                        "value": "pinas? jacht?"
                      },
                      {
                        "value": "jacht? pinas?"
                      },
                      {
                        "value": "hoeker? bootje?"
                      },
                      {
                        "value": "pinas? fluit?"
                      },
                      {
                        "value": "bootje? fluit?"
                      },
                      {
                        "value": "fluit? kat?"
                      },
                      {
                        "value": "kat? fluit?"
                      },
                      {
                        "value": "galjoot? pinas?"
                      },
                      {
                        "value": "fluit? hekboot?"
                      },
                      {
                        "value": "fluit? hoeker?"
                      },
                      {
                        "value": "fregat? jacht?"
                      },
                      {
                        "value": "jacht? fregat?"
                      },
                      {
                        "value": "hekboot? fluit?"
                      },
                      {
                        "value": "pinas?"
                      },
                      {
                        "value": "jacht?"
                      }
                    ]
                  }
                ]
              },
              "exclude": false
            }
          }
        ]
      }
    }
  ],
  "tables": []
}