{
  "pivots": [
    {
      "id": "2c662b90-c4a6-11ea-8129-1352f12937b9",
      "values": [
        {
          "aggregationType": "sum",
          "column": {
            "columnId": "number",
            "subColumnType": 0
          }
        },
        {
          "aggregationType": "sum",
          "column": {
            "columnId": "trip",
            "subColumnType": 0
          }
        }
      ],
      "dimensions": [
        {
          "column": {
            "columnId": "departure_date",
            "subColumnType": 2
          },
          "orderBy": {
            "type": "value",
            "order": "ascending",
            "value": {
              "aggregationType": "sum",
              "column": {
                "columnId": "number",
                "subColumnType": 0
              }
            }
          }
        },
        {
          "column": {
            "columnId": "departure_date",
            "subColumnType": 1
          },
          "orderBy": {
            "type": "value",
            "order": "descending",
            "value": {
              "aggregationType": "sum",
              "column": {
                "columnId": "trip",
                "subColumnType": 0
              }
            }
          }
        }
      ],
      "filters": {
        "type": "and",
        "items": [
          {
            "columns": [
              {
                "columnId": "departure_date",
                "subColumnType": 1
              }
            ],
            "filterBy": {
              "type": 10,
              "range": {
                "items": [
                  {
                    "value": "1595"
                  },
                  {
                    "value": "1598"
                  },
                  {
                    "value": "1599"
                  },
                  {
                    "value": "1600"
                  }
                ]
              },
              "exclude": false
            }
          }
        ]
      }
    }
  ],
  "tables": []
}