1595,2,1
1598,1,0.2
1598,2,0.64
1598,3,0.16
1599,2,0.166
1599,4,0.833
1600,1,0.2
1600,2,0.8
1601,1,0.333
1601,2,0.431
1601,3,0.117
1601,4,0.117
1602,1,0.093
1602,2,0.593
1602,3,0.156
1602,4,0.156
1611,1,0.185
1611,2,0.185
1611,3,0.037
1611,4,0.592
