{
  "pivots": [
    {
      "id": "491b3630-c4bb-11ea-80f0-d7a5c4021bb5",
      "values": [],
      "dimensions": [
        {
          "column": {
            "columnId": "departure_date",
            "subColumnType": 1
          },
          "orderBy": {
            "type": "auto",
            "order": "ascending"
          }
        }
      ],
      "calcValues": [
        {
          "type": "accumulation",
          "value": {
            "aggregationType": "sum",
            "column": {
              "columnId": "trip",
              "subColumnType": 0
            }
          },
          "divideBy": {
            "type": "partition",
            "columns": []
          },
          "options": {
            "afterCalcFilter": true,
            "accumulationType": "sum",
            "include": true,
            "previous": 2,
            "next": 0
          }
        },
        {
          "type": "accumulation",
          "value": {
            "aggregationType": "sum",
            "column": {
              "columnId": "trip",
              "subColumnType": 0
            }
          },
          "divideBy": {
            "type": "partition",
            "columns": []
          },
          "options": {
            "afterCalcFilter": true,
            "accumulationType": "sum"
          }
        },
        {
          "type": "percentage",
          "value": {
            "aggregationType": "sum",
            "column": {
              "columnId": "trip",
              "subColumnType": 0
            }
          },
          "divideBy": {
            "type": "partition",
            "columns": []
          },
          "options": {
            "afterCalcFilter": true
          }
        },
        {
          "type": "rank",
          "value": {
            "aggregationType": "sum",
            "column": {
              "columnId": "trip",
              "subColumnType": 0
            }
          },
          "divideBy": {
            "type": "partition",
            "columns": []
          },
          "options": {
            "afterCalcFilter": true,
            "usePercentage": false,
            "order": "descending",
            "treatDuplicateAs": 4
          }
        },
        {
          "type": "dateTimeOffset",
          "value": {
            "aggregationType": "sum",
            "column": {
              "columnId": "trip",
              "subColumnType": 0
            }
          },
          "options": {
            "afterCalcFilter": true,
            "offset": -1,
            "subdate": {
              "columnId": "departure_date",
              "subColumnType": 1
            },
            "method": "value"
          }
        },
        {
          "type": "dateTimeOffset",
          "value": {
            "aggregationType": "sum",
            "column": {
              "columnId": "trip",
              "subColumnType": 0
            }
          },
          "options": {
            "afterCalcFilter": true,
            "offset": -1,
            "subdate": {
              "columnId": "departure_date",
              "subColumnType": 1
            },
            "method": "ratio"
          }
        },
        {
          "type": "dateTimeOffset",
          "value": {
            "aggregationType": "sum",
            "column": {
              "columnId": "trip",
              "subColumnType": 0
            }
          },
          "options": {
            "afterCalcFilter": true,
            "offset": -1,
            "subdate": {
              "columnId": "departure_date",
              "subColumnType": 1
            },
            "method": "difference"
          }
        },
        {
          "type": "dateTimeOffset",
          "value": {
            "aggregationType": "sum",
            "column": {
              "columnId": "trip",
              "subColumnType": 0
            }
          },
          "options": {
            "afterCalcFilter": true,
            "offset": -1,
            "subdate": {
              "columnId": "departure_date",
              "subColumnType": 1
            },
            "method": "percentDifference"
          }
        },
        {
          "type": "dateTimeOffset",
          "value": {
            "aggregationType": "sum",
            "column": {
              "columnId": "trip",
              "subColumnType": 0
            }
          },
          "options": {
            "afterCalcFilter": true,
            "offset": -1,
            "subdate": {
              "columnId": "departure_date",
              "subColumnType": 1
            },
            "method": "percentDifference"
          }
        }
      ],
      "filters": {
        "type": "and",
        "items": [
          {
            "columns": [
              {
                "columnId": "cape_arrival",
                "subColumnType": 1
              }
            ],
            "filterBy": {
              "type": 10,
              "range": {
                "items": [
                  {
                    "value": "1610"
                  },
                  {
                    "value": "1611"
                  },
                  {
                    "value": "1613"
                  },
                  {
                    "value": "1614"
                  },
                  {
                    "value": "1615"
                  },
                  {
                    "value": "1616"
                  }
                ]
              },
              "exclude": false
            }
          }
        ]
      }
    }
  ],
  "tables": []
}