"1655-01-24T00:00:00",5419,1,"Wielingen"
"1655-04-21T00:00:00",5425,7,"Wielingen"
"1655-04-21T00:00:00",5429,1,"Wielingen"
"1655-04-21T00:00:00",5422,1,"Vlie"
"1655-04-21T00:00:00",5424,1,"Vlie"
"1655-04-21T00:00:00",5426,2,"Vlie"
"1655-04-21T00:00:00",5428,4,"Vlie"
"1655-01-19T00:00:00",5417,1,"Texel"
"1655-01-29T00:00:00",5418,1,"Texel"
"1655-02-01T00:00:00",5420,1,"Texel"
"1655-06-24T00:00:00",5430,1,"Texel"
"1655-04-21T00:00:00",5423,1,"Goeree"
"1655-02-21T00:00:00",807,7,"Batavia"
"1655-03-18T00:00:00",809,1,"Batavia"
"1655-02-22T00:00:00",810,1,"Batavia"
"1655-02-19T00:00:00",811,6,"Batavia"
"1655-04-03T00:00:00",812,7,"Batavia"
"1655-03-18T00:00:00",813,1,"Batavia"
"1655-04-03T00:00:00",814,1,"Batavia"
"1655-04-03T00:00:00",815,3,"Batavia"
"1655-04-03T00:00:00",816,1,"Batavia"
"1655-07-22T00:00:00",817,2,"Batavia"
"1655-04-03T00:00:00",818,2,"Batavia"
"1655-04-02T00:00:00",819,1,"Batavia"
"1655-04-12T00:00:00",820,3,"Batavia"
"1655-04-11T00:00:00",821,1,"Batavia"
"1655-07-18T00:00:00",823,1,"Batavia"
"1655-08-24T00:00:00",825,7,"Batavia"
"1655-11-07T00:00:00",826,1,"Batavia"
"1655-10-21T00:00:00",827,1,"Batavia"
"1655-11-04T00:00:00",829,7,"Batavia"
"1655-11-16T00:00:00",830,6,"Batavia"
"1655-11-10T00:00:00",831,1,"Batavia"
