{
  "pivots": [
    {
      "id": "6b059a53-c4b7-11ea-80f0-d7a5c4021bb5",
      "values": [],
      "dimensions": [
        {
          "column": {
            "columnId": "departure_date",
            "subColumnType": 1
          },
          "orderBy": {
            "type": "auto",
            "order": "ascending"
          }
        },
        {
          "column": {
            "columnId": "departure_date",
            "subColumnType": 2
          },
          "orderBy": {
            "type": "auto",
            "order": "ascending"
          }
        }
      ],
      "calcValues": [
        {
          "type": "dateTimeOffset",
          "value": {
            "aggregationType": "sum",
            "column": {
              "columnId": "trip",
              "subColumnType": 0
            }
          },
          "options": {
            "afterCalcFilter": true,
            "offset": 1,
            "subdate": {
              "columnId": "departure_date",
              "subColumnType": 2
            },
            "method": "value"
          }
        }
      ],
      "filters": {
        "type": "and",
        "items": [
          {
            "columns": [
              {
                "columnId": "departure_date",
                "subColumnType": 1
              }
            ],
            "filterBy": {
              "type": 10,
              "range": {
                "items": [
                  {
                    "value": "1598"
                  },
                  {
                    "value": "1599"
                  },
                  {
                    "value": "1600"
                  },
                  {
                    "value": "1601"
                  },
                  {
                    "value": "1602"
                  },
                  {
                    "value": "1603"
                  }
                ]
              },
              "exclude": false
            }
          },
          {
            "columns": [
              {
                "columnId": "departure_date",
                "subColumnType": 0
              }
            ],
            "filterBy": {
              "type": 20,
              "range": {
                "min": "1599-10-01T00:00:00",
                "max": "1599-12-31T23:59:59",
                "maxIncluded": true,
                "minIncluded": true
              },
              "exclude": false
            }
          }
        ]
      }
    }
  ],
  "tables": []
}