1595,null,"Engano",1
1598,null,"Engano",1
1598,null,"Bantam",1.6
1598,null,"Atjeh",1
1598,null,"Tidore",1
1598,null,"Ternate",1
1599,null,"Bantam",1.618
1600,null,"Bantam",1.412
1601,null,"Bantam",1.4
1601,null,"Atjeh",1.142
1602,null,"Bantam",1.342
1602,null,"Atjeh",1.095
1611,null,"Bantam",1.382
