{
  "pivots": [
    {
      "id": "77d188f0-c450-11ea-9a73-1df3b480b8fb",
      "values": [],
      "dimensions": [
        {
          "column": {
            "columnId": "arrival_harbour",
            "subColumnType": 0
          }
        },
        {
          "column": {
            "columnId": "departure_date",
            "subColumnType": 1
          },
          "orderBy": {
            "type": "auto",
            "order": "ascending"
          }
        }
      ],
      "calcValues": [
        {
          "type": "accumulation",
          "value": {
            "aggregationType": "max",
            "column": {
              "columnId": "trip",
              "subColumnType": 0
            }
          },
          "divideBy": {
            "type": "partition",
            "columns": [
              {
                "columnId": "departure_date",
                "subColumnType": 1
              }
            ]
          },
          "options": {
            "afterCalcFilter": true,
            "accumulationType": "max"
          }
        }
      ],
      "filters": {
        "type": "and",
        "items": [
          {
            "columns": [
              {
                "columnId": "departure_date",
                "subColumnType": 1
              }
            ],
            "filterBy": {
              "type": 10,
              "range": {
                "items": [
                  {
                    "value": "1595"
                  },
                  {
                    "value": "1598"
                  },
                  {
                    "value": "1599"
                  },
                  {
                    "value": "1600"
                  },
                  {
                    "value": "1601"
                  },
                  {
                    "value": "1602"
                  },
                  {
                    "value": "1611"
                  }
                ]
              },
              "exclude": false
            }
          },
          {
            "columns": [
              {
                "columnId": "arrival_harbour",
                "subColumnType": 0
              }
            ],
            "filterBy": {
              "type": 10,
              "range": {
                "items": [
                  {
                    "value": "Atjeh"
                  },
                  {
                    "value": "Tidore"
                  },
                  {
                    "value": "Ternate"
                  },
                  {
                    "value": "Djaratan"
                  },
                  {
                    "value": "Ceylon"
                  }
                ]
              },
              "exclude": false
            }
          }
        ]
      }
    }
  ],
  "tables": []
}