"Engano",1595,1
"Engano",1598,0.19
"Bantam",1598,0.156
"Bantam",1599,1
"Bantam",1600,0.032
"Bantam",1601,0.006
"Bantam",1602,0.011
"Bantam",1611,0.076
null,1598,0.387
null,1601,0.833
null,1602,0.163
"Atjeh",1598,0.049
"Atjeh",1601,0.004
"Atjeh",1602,0.003
"Tidore",1598,0.066
"Ternate",1598,0.072
"Djaratan",1598,0.078
"Ceylon",1602,0.003
"Pulicat",1611,0.013
"Texel",1600,0.967
"Texel",1602,0.408
"Texel",1611,0.227
"Maas",1601,0.052
"Zeeland",1601,0.104
"Zeeland",1602,0.163
"Zeeland",1611,0.227
"Vlissingen",1602,0.081
"Wielingen",1602,0.163
"Wielingen",1611,0.227
"Goeree",1611,0.227
