{
  "pivots": [
    {
      "id": "87894572-c4b0-11ea-b4fd-f7ac4a21f178",
      "values": [],
      "dimensions": [
        {
          "column": {
            "columnId": "departure_date",
            "subColumnType": 1
          },
          "orderBy": {
            "type": "auto",
            "order": "ascending"
          }
        },
        {
          "column": {
            "columnId": "departure_date",
            "subColumnType": 2
          },
          "orderBy": {
            "type": "auto",
            "order": "ascending"
          }
        }
      ],
      "calcValues": [
        {
          "type": "rank",
          "value": {
            "aggregationType": "sum",
            "column": {
              "columnId": "trip",
              "subColumnType": 0
            }
          },
          "divideBy": {
            "type": "partition",
            "columns": [
              {
                "columnId": "departure_date",
                "subColumnType": 2
              }
            ]
          },
          "options": {
            "afterCalcFilter": true,
            "usePercentage": false,
            "order": "descending",
            "treatDuplicateAs": 3
          }
        }
      ],
      "filters": {
        "type": "and",
        "items": [
          {
            "columns": [
              {
                "columnId": "departure_date",
                "subColumnType": 1
              }
            ],
            "filterBy": {
              "type": 10,
              "range": {
                "items": [
                  {
                    "value": "1595"
                  },
                  {
                    "value": "1598"
                  },
                  {
                    "value": "1599"
                  },
                  {
                    "value": "1600"
                  },
                  {
                    "value": "1601"
                  },
                  {
                    "value": "1602"
                  },
                  {
                    "value": "1611"
                  }
                ]
              },
              "exclude": false
            }
          }
        ]
      }
    }
  ],
  "tables": []
}