{
  "pivots": [],
  "tables": [
    {
      "id": "8da2b530-c4ca-11ea-9154-55ed5257cff0",
      "dimensions": [
        {
          "column": {
            "columnId": "number",
            "subColumnType": 0
          },
          "orderBy": {
            "type": "auto",
            "order": "descending"
          }
        },
        {
          "column": {
            "columnId": "trip",
            "subColumnType": 0
          }
        },
        {
          "column": {
            "columnId": "departure_date",
            "subColumnType": 1
          },
          "orderBy": {
            "type": "auto",
            "order": "ascending"
          }
        },
        {
          "column": {
            "columnId": "departure_date",
            "subColumnType": 4
          },
          "orderBy": {
            "type": "auto",
            "order": "ascending"
          }
        },
        {
          "column": {
            "columnId": "departure_date",
            "subColumnType": 16
          },
          "orderBy": {
            "type": "auto",
            "order": "ascending"
          }
        }
      ],
      "options": {
        "index": 0,
        "capacity": 200
      },
      "filters": {
        "type": "and",
        "items": [
          {
            "columns": [
              {
                "columnId": "number",
                "subColumnType": 0
              }
            ],
            "filterBy": {
              "type": 21,
              "range": {
                "max": 8401,
                "min": 10,
                "maxIncluded": false,
                "minIncluded": false
              },
              "exclude": false
            }
          },
          {
            "columns": [
              {
                "columnId": "trip",
                "subColumnType": 0
              }
            ],
            "filterBy": {
              "type": 10,
              "range": {
                "items": [
                  {
                    "value": "1"
                  },
                  {
                    "value": "2"
                  },
                  {
                    "value": "3"
                  },
                  {
                    "value": "4"
                  },
                  {
                    "value": "5"
                  },
                  {
                    "value": "6"
                  },
                  {
                    "value": "7"
                  }
                ]
              },
              "exclude": true
            }
          }
        ]
      }
    }
  ]
}