{
  "pivots": [
    {
      "id": "b4821e90-c275-11ea-88ea-e33c0f588dba",
      "values": [],
      "dimensions": [
        {
          "column": {
            "columnId": "type_of_boat",
            "subColumnType": 0
          }
        }
      ],
      "calcValues": [
        {
          "type": "accumulation",
          "value": {
            "aggregationType": "avg",
            "column": {
              "columnId": "tonnage",
              "subColumnType": 0
            }
          },
          "divideBy": {
            "type": "partition",
            "columns": []
          },
          "options": {
            "afterCalcFilter": true,
            "accumulationType": "avg",
            "include": false,
            "previous": 1,
            "next": 1
          }
        }
      ]
    }
  ],
  "tables": [],
  "filters": {
    "type": "and",
    "items": [
      {
        "columns": [
          {
            "columnId": "type_of_boat",
            "subColumnType": 0
          }
        ],
        "filterBy": {
          "type": 10,
          "range": {
            "items": [
              {
                "value": "galjoot? hoeker?"
              },
              {
                "value": "hoeker? jachtje?"
              },
              {
                "value": "hneker"
              },
              {
                "value": "pinas/fluit"
              },
              {
                "value": "hoeker/bootje"
              },
              {
                "value": "jacht?"
              },
              {
                "value": "fregat?"
              },
              {
                "value": "fregat/jacht"
              }
            ]
          },
          "exclude": false
        }
      }
    ]
  }
}