{
  "pivots": [
    {
      "id": "e0f4aaf0-c4bf-11ea-9154-55ed5257cff0",
      "values": [
        {
          "aggregationType": "sum",
          "column": {
            "columnId": "trip",
            "subColumnType": 0
          }
        }
      ],
      "dimensions": [
        {
          "column": {
            "columnId": "departure_date",
            "subColumnType": 1
          },
          "orderBy": {
            "type": "auto",
            "order": "ascending"
          }
        },
        {
          "column": {
            "columnId": "departure_date",
            "subColumnType": 2
          },
          "orderBy": {
            "type": "auto",
            "order": "ascending"
          }
        },
        {
          "column": {
            "columnId": "arrival_harbour",
            "subColumnType": 0
          }
        }
      ],
      "filters": {
        "type": "and",
        "items": [
          {
            "columns": [
              {
                "columnId": "departure_date",
                "subColumnType": 1
              }
            ],
            "filterBy": {
              "type": 10,
              "range": {
                "items": [
                  {
                    "value": "1595"
                  },
                  {
                    "value": "1598"
                  },
                  {
                    "value": "1599"
                  },
                  {
                    "value": "1600"
                  },
                  {
                    "value": "1601"
                  },
                  {
                    "value": "1611"
                  }
                ]
              },
              "exclude": false
            }
          },
          {
            "columns": [
              {
                "columnId": "departure_date",
                "subColumnType": 1
              },
              {
                "columnId": "departure_date",
                "subColumnType": 2
              },
              {
                "columnId": "arrival_harbour",
                "subColumnType": 0
              }
            ],
            "filterBy": {
              "type": 10,
              "range": {
                "items": [
                  {
                    "value": 1598,
                    "children": [
                      {
                        "value": 2,
                        "children": [
                          {
                            "value": "Engano"
                          },
                          {
                            "value": "Bantam"
                          }
                        ]
                      },
                      {
                        "value": 1,
                        "children": [
                          {
                            "value": "Bantam"
                          }
                        ]
                      }
                    ]
                  },
                  {
                    "value": 1611,
                    "children": [
                      {
                        "value": 1,
                        "children": [
                          {
                            "value": "Bantam"
                          }
                        ]
                      },
                      {
                        "value": 2,
                        "children": [
                          {
                            "value": "Bantam"
                          }
                        ]
                      },
                      {
                        "value": 4,
                        "children": [
                          {
                            "value": "Bantam"
                          }
                        ]
                      }
                    ]
                  },
                  {
                    "value": 1599,
                    "children": [
                      {
                        "value": 2,
                        "children": [
                          {
                            "value": "Bantam"
                          }
                        ]
                      },
                      {
                        "value": 4,
                        "children": [
                          {
                            "value": "Bantam"
                          }
                        ]
                      }
                    ]
                  },
                  {
                    "value": 1600,
                    "children": [
                      {
                        "value": 2,
                        "children": [
                          {
                            "value": "Bantam"
                          }
                        ]
                      }
                    ]
                  },
                  {
                    "value": 1601,
                    "children": [
                      {
                        "value": 2,
                        "children": [
                          {
                            "value": "Bantam"
                          }
                        ]
                      }
                    ]
                  }
                ]
              },
              "exclude": false
            }
          },
          {
            "columns": [
              {
                "columnId": "departure_date",
                "subColumnType": 1
              },
              {
                "columnId": "departure_date",
                "subColumnType": 2
              },
              {
                "columnId": "arrival_harbour",
                "subColumnType": 0
              }
            ],
            "filterBy": {
              "type": 10,
              "range": {
                "items": [
                  {
                    "value": 1598,
                    "children": [
                      {
                        "value": 1,
                        "children": [
                          {
                            "value": "Bantam"
                          }
                        ]
                      }
                    ]
                  },
                  {
                    "value": 1611,
                    "children": [
                      {
                        "value": 1,
                        "children": [
                          {
                            "value": "Bantam"
                          }
                        ]
                      },
                      {
                        "value": 4,
                        "children": [
                          {
                            "value": "Bantam"
                          }
                        ]
                      }
                    ]
                  },
                  {
                    "value": 1599,
                    "children": [
                      {
                        "value": 4,
                        "children": [
                          {
                            "value": "Bantam"
                          }
                        ]
                      }
                    ]
                  }
                ]
              },
              "exclude": false
            }
          },
          {
            "columns": [
              {
                "columnId": "departure_date",
                "subColumnType": 1
              },
              {
                "columnId": "departure_date",
                "subColumnType": 2
              },
              {
                "columnId": "arrival_harbour",
                "subColumnType": 0
              }
            ],
            "filterBy": {
              "type": 10,
              "range": {
                "items": [
                  {
                    "value": 1611,
                    "children": [
                      {
                        "value": 1,
                        "children": [
                          {
                            "value": "Bantam"
                          }
                        ]
                      }
                    ]
                  },
                  {
                    "value": 1599,
                    "children": [
                      {
                        "value": 4,
                        "children": [
                          {
                            "value": "Bantam"
                          }
                        ]
                      }
                    ]
                  }
                ]
              },
              "exclude": true
            }
          }
        ]
      }
    }
  ],
  "tables": []
}