1614,11,1,179,1,"Mauritius"
1615,4,14,189,1,"Bantam"
1615,4,14,190,1,"Pulicat"
1615,1,1,5104,1,"Rotterdam"
1616,9,9,198,1,"Bantam"
1616,9,9,199,1,"Bantam"
1616,8,5,201,1,"Macassar"
1616,6,10,204,2,"Bantam"
1616,10,20,205,2,"Bantam"
1616,4,20,5112,3,"Goeree"
1616,5,2,5113,1,"Zeeland"
1616,10,26,5115,1,"Goeree"
1616,11,29,5116,2,"Goeree"
1617,7,5,206,1,"Bantam"
1617,7,9,209,1,"Bantam"
1617,7,11,210,1,"Bantam"
1617,8,10,212,2,"Bantam"
1617,8,10,213,1,"Bantam"
1618,3,14,214,2,"Pondicherry"
1618,3,8,217,1,"Jacatra"
1618,3,16,5123,1,"Texel"
1618,3,17,5125,1,"Texel"
1618,3,17,5126,1,"Zeeland"
1619,5,17,223,1,"Bantam"
1619,4,1,224,2,"Bantam"
1619,11,19,227,1,"Jacatra"
1619,4,1,230,3,"Jacatra"
1619,5,20,231,1,"Bantam"
1619,11,19,234,2,"Jacatra"
1619,10,5,5133,2,"Texel"
