{
  "pivots": [],
  "tables": [
    {
      "id": "65baa051-c4ac-11ea-9329-4b5c71e89335",
      "dimensions": [
        {
          "column": {
            "columnId": "cape_arrival",
            "subColumnType": 1
          },
          "orderBy": {
            "type": "auto",
            "order": "ascending"
          }
        },
        {
          "column": {
            "columnId": "cape_arrival",
            "subColumnType": 4
          },
          "orderBy": {
            "type": "auto",
            "order": "descending"
          }
        },
        {
          "column": {
            "columnId": "cape_arrival",
            "subColumnType": 16
          },
          "orderBy": {
            "type": "auto",
            "order": "ascending"
          }
        },
        {
          "column": {
            "columnId": "number",
            "subColumnType": 0
          }
        },
        {
          "column": {
            "columnId": "trip",
            "subColumnType": 0
          }
        },
        {
          "column": {
            "columnId": "arrival_harbour",
            "subColumnType": 0
          }
        }
      ],
      "options": {
        "index": 0,
        "capacity": 200
      },
      "filters": {
        "type": "and",
        "items": [
          {
            "columns": [
              {
                "columnId": "cape_arrival",
                "subColumnType": 1
              }
            ],
            "filterBy": {
              "type": 20,
              "range": {
                "max": 1703,
                "min": 1192,
                "maxIncluded": true,
                "minIncluded": true
              },
              "exclude": false
            }
          },
          {
            "columns": [
              {
                "columnId": "cape_arrival",
                "subColumnType": 1
              }
            ],
            "filterBy": {
              "type": 20,
              "range": {
                "max": 1667,
                "min": 1665,
                "maxIncluded": true,
                "minIncluded": true
              },
              "exclude": true
            }
          },
          {
            "columns": [
              {
                "columnId": "cape_arrival",
                "subColumnType": 1
              }
            ],
            "filterBy": {
              "type": 22,
              "range": {
                "max": 1670,
                "min": 1192,
                "maxIncluded": true,
                "minIncluded": false
              },
              "exclude": false
            }
          },
          {
            "columns": [
              {
                "columnId": "cape_arrival",
                "subColumnType": 1
              }
            ],
            "filterBy": {
              "type": 22,
              "range": {
                "max": 1670,
                "min": 1192,
                "maxIncluded": false,
                "minIncluded": false
              },
              "exclude": false
            }
          },
          {
            "columns": [
              {
                "columnId": "cape_arrival",
                "subColumnType": 1
              }
            ],
            "filterBy": {
              "type": 21,
              "range": {
                "max": 2002,
                "min": 1652,
                "maxIncluded": false,
                "minIncluded": true
              },
              "exclude": false
            }
          },
          {
            "columns": [
              {
                "columnId": "cape_arrival",
                "subColumnType": 1
              }
            ],
            "filterBy": {
              "type": 21,
              "range": {
                "max": 2002,
                "min": 1652,
                "maxIncluded": false,
                "minIncluded": false
              },
              "exclude": false
            }
          },
          {
            "columns": [
              {
                "columnId": "cape_arrival",
                "subColumnType": 1
              }
            ],
            "filterBy": {
              "type": 10,
              "range": {
                "items": [
                  {
                    "value": 1654
                  }
                ]
              },
              "exclude": true
            }
          },
          {
            "columns": [
              {
                "columnId": "cape_arrival",
                "subColumnType": 1
              }
            ],
            "filterBy": {
              "type": 10,
              "range": {
                "items": [
                  {
                    "value": 1655
                  }
                ]
              },
              "exclude": false
            }
          }
        ]
      }
    }
  ]
}